10.24exercise
…
#Question 5
group_counts <- grades %>%
  group_by(Group) %>%
  summarise(Count = n())

group_counts

# A tibble: 24 × 2
   Group  Count
   <chr>  <int>
 1 grp_1     29
 2 grp_10    23
 3 grp_11    25
 4 grp_12    33
 5 grp_13    29
 6 grp_14    32
 7 grp_15    34
 8 grp_16    33
 9 grp_17    35
10 grp_18    36
# ℹ 14 more rows
…
#Question 8
group_missed_exam <- grades %>%
  group_by(Group) %>%
  summarise(Count = sum(is.na(Exam)))

group_missed_exam

# A tibble: 24 × 2
   Group  Count
   <chr>  <int>
 1 grp_1      3
 2 grp_10     7
 3 grp_11     6
 4 grp_12     1
 5 grp_13     1
 6 grp_14     1
 7 grp_15     2
 8 grp_16     0
 9 grp_17     5
10 grp_18     3
# ℹ 14 more rows
…
#Question 10
library(tidyr)

long_format_grades <- grades %>%
  pivot_longer(cols = starts_with("MCQ"), names_to = "name", values_to = "value")

#Question 11
missing_grades_per_student <- long_format_grades %>%
  group_by(Id) %>%
  summarise(Count = sum(is.na(value)))

missing_grades_per_student

# A tibble: 729 × 2
      Id Count
   <int> <int>
 1     1     1
 2     2     1
 3     3     2
 4     4     0
 5     5     0
 6     6     0
 7     7     1
 8     8     1
 9     9     0
10    10     0
# ℹ 719 more rows
…
#Question 16
students_missed_mcq <- long_format_grades %>%
  filter(str_starts(name, "MCQ")) %>%
  group_by(Id) %>%
  summarise(Missed = any(is.na(value)))

students_missed_mcq

# A tibble: 729 × 2
      Id Missed
   <int> <lgl> 
 1     1 TRUE  
 2     2 TRUE  
 3     3 TRUE  
 4     4 FALSE 
 5     5 FALSE 
 6     6 FALSE 
 7     7 TRUE  
 8     8 TRUE  
 9     9 FALSE 
10    10 FALSE 
# ℹ 719 more rows

#Question 17
group_percentage_missed_mcq <- students_missed_mcq %>%
  inner_join(grades, by = "Id") %>%
  group_by(Group) %>%
  summarise(P_missed = mean(Missed))

group_percentage_missed_mcq

# A tibble: 24 × 2
   Group  P_missed
   <chr>     <dbl>
 1 grp_1     0.448
 2 grp_10    0.435
 3 grp_11    0.24 
 4 grp_12    1    
 5 grp_13    0.103
 6 grp_14    0.406
 7 grp_15    0.441
 8 grp_16    0.212
 9 grp_17    0.257
10 grp_18    0.972
# ℹ 14 more rows
…
